Source/in sensor computing/Collective dynamics and long-range order in thermal neuristor networks/data/thermal_coupling/Ben012_1_325K_1E3_12k_4V_1E2_12K_2.6V_sync_000_ALL.csv

Model,MSO54
Channel,CH1,,Channel,CH2,,Channel,CH3,,Channel,CH4
Waveform Type,ANALOG,,Waveform Type,ANALOG,,Waveform Type,ANALOG,,Waveform Type,ANALOG
Horizontal Units,s,,Horizontal Units,s,,Horizontal Units,s,,Horizontal Units,s
Sample Interval,3.20000000e-09,,Sample Interval,3.20000000e-09,,Sample Interval,3.20000000e-09,,Sample Interval,3.20000000e-09
Record Length,31250,,Record Length,31250,,Record Length,31250,,Record Length,31250
Zero Index,343.00156250,,Zero Index,343.00156250,,Zero Index,343.00156250,,Zero Index,343.00156250
Vertical Units,V,,Vertical Units,V,,Vertical Units,V,,Vertical Units,V
,,,,,,,,,,
ANALOG_Thumbnail,,,ANALOG_Thumbnail,,,ANALOG_Thumbnail,,,ANALOG_Thumbnail,

TIME,CH1,CH2,CH3,CH4
-1.09760500e-06,7.50000000e-03,-2.90625000e-03,-3.12500000e-05,-4.67187500e-02
-1.09440500e-06,3.59375000e-03,-1.09375000e-03,-1.56250000e-04,-3.65625000e-02
-1.09120500e-06,8.75000000e-03,-7.50000000e-04,-2.03125000e-03,-4.04687500e-02
-1.08800500e-06,7.03125000e-03,-1.96875000e-03,-1.78125000e-03,-3.60937500e-02
-1.08480500e-06,1.00000000e-02,-6.87500000e-04,-4.06250000e-04,-4.76562500e-02
-1.08160500e-06,8.75000000e-03,-1.62500000e-03,-5.31250000e-04,-3.59375000e-02
-1.07840500e-06,6.09375000e-03,-1.09375000e-03,-1.65625000e-03,-3.50000000e-02
-1.07520500e-06,3.43750000e-03,-9.37500000e-04,-7.81250000e-04,-4.17187500e-02
-1.07200500e-06,1.25000000e-03,-1.34375000e-03,-2.81250000e-04,-3.53125000e-02
-1.06880500e-06,5.15625000e-03,-1.21875000e-03,-1.03125000e-03,-3.50000000e-02
-1.06560500e-06,3.75000000e-03,-5.93750000e-04,-1.03125000e-03,-4.15625000e-02
-1.06240500e-06,-2.96875000e-03,-1.56250000e-04,-2.31250000e-03,-3.34375000e-02
-1.05920500e-06,4.37500000e-03,-5.62500000e-04,-5.31250000e-04,-3.14062500e-02
-1.05600500e-06,7.96875000e-03,-4.06250000e-04,-1.40625000e-03,-3.26562500e-02
-1.05280500e-06,5.93750000e-03,1.25000000e-04,1.06250000e-03,-3.62500000e-02
-1.04960500e-06,7.81250000e-03,-7.18750000e-04,-2.03125000e-03,-3.79687500e-02
-1.04640500e-06,5.15625000e-03,-2.03125000e-03,2.18750000e-04,-3.37500000e-02
-1.04320500e-06,1.25000000e-02,-1.18750000e-03,7.18750000e-04,-3.70312500e-02
-1.04000500e-06,1.75000000e-02,-8.75000000e-04,-1.28125000e-03,-3.23437500e-02
-1.03680500e-06,1.96875000e-02,-1.34375000e-03,-1.56250000e-04,-3.60937500e-02
-1.03360500e-06,5.15625000e-03,-7.18750000e-04,-6.56250000e-04,-3.25000000e-02
-1.03040500e-06,3.75000000e-03,-6.56250000e-04,-2.81250000e-04,-3.59375000e-02
-1.02720500e-06,6.25000000e-03,-5.62500000e-04,-5.31250000e-04,-3.62500000e-02
-1.02400500e-06,1.10937500e-02,-1.62500000e-03,-1.03125000e-03,-3.71875000e-02
-1.02080500e-06,2.03125000e-03,-4.37500000e-04,-5.62500000e-04,-4.17187500e-02
-1.01760500e-06,8.59375000e-03,-3.12500000e-04,-1.15625000e-03,-3.79687500e-02
-1.01440500e-06,2.50000000e-03,-6.25000000e-04,-1.40625000e-03,-3.15625000e-02
-1.01120500e-06,7.34375000e-03,-1.09375000e-03,-1.53125000e-03,-5.00000000e-02
-1.00800500e-06,9.84375000e-03,-8.12500000e-04,-2.06250000e-03,-4.60937500e-02
-1.00480500e-06,9.06250000e-03,-1.43750000e-03,-1.28125000e-03,-4.34375000e-02
-1.00160500e-06,5.15625000e-03,-1.56250000e-04,-2.03125000e-03,-4.85937500e-02
-9.98405000e-07,8.75000000e-03,-5.31250000e-04,-1.15625000e-03,-4.17187500e-02
-9.95205000e-07,3.59375000e-03,-5.93750000e-04,-1.03125000e-03,-4.32812500e-02
-9.92005000e-07,6.71875000e-03,-1.18750000e-03,-1.53125000e-03,-4.64062500e-02
-9.88805000e-07,3.12500000e-03,-1.75000000e-03,-1.56250000e-04,-4.65625000e-02
-9.85605000e-07,1.59375000e-02,-2.15625000e-03,-1.28125000e-03,-4.59375000e-02
-9.82405000e-07,2.96875000e-03,-2.12500000e-03,-2.03125000e-03,-5.06250000e-02
-9.79205000e-07,6.09375000e-03,-1.59375000e-03,-2.81250000e-04,-3.84375000e-02
-9.76005000e-07,2.03125000e-03,-5.00000000e-04,-2.03125000e-03,-3.39062500e-02
-9.72805000e-07,1.09375000e-03,-1.06250000e-03,-2.03125000e-03,-4.34375000e-02
-9.69605000e-07,-7.50000000e-03,-1.62500000e-03,-1.56250000e-04,-4.01562500e-02
-9.66405000e-07,-7.81250000e-04,-7.81250000e-04,7.18750000e-04,-4.53125000e-02
-9.63205000e-07,3.12500000e-04,-1.00000000e-03,-1.03125000e-03,-3.14062500e-02
-9.60005000e-07,8.59375000e-03,6.25000000e-05,-8.43750000e-04,-4.53125000e-02
-9.56805000e-07,5.62500000e-03,-8.12500000e-04,-5.31250000e-04,-3.70312500e-02
-9.53605000e-07,3.12500000e-03,-8.12500000e-04,-6.56250000e-04,-3.78125000e-02
-9.50405000e-07,6.40625000e-03,-2.40625000e-03,-1.40625000e-03,-3.59375000e-02
-9.47205000e-07,-3.12500000e-04,-4.68750000e-04,-1.78125000e-03,-3.46875000e-02
-9.44005000e-07,7.50000000e-03,-1.31250000e-03,-1.90625000e-03,-3.37500000e-02
-9.40805000e-07,1.32812500e-02,-6.87500000e-04,-2.81250000e-04,-4.37500000e-02
-9.37605000e-07,6.09375000e-03,-1.31250000e-03,-1.03125000e-03,-3.23437500e-02
-9.34405000e-07,5.00000000e-03,-1.21875000e-03,-1.53125000e-03,-3.64062500e-02
-9.31205000e-07,6.25000000e-04,-9.68750000e-04,4.68750000e-04,-4.12500000e-02
-9.28005000e-07,3.75000000e-03,-6.56250000e-04,-1.65625000e-03,-2.60937500e-02
-9.24805000e-07,1.26562500e-02,-1.00000000e-03,-2.18750000e-03,-3.84375000e-02
-9.21605000e-07,5.31250000e-03,-1.06250000e-03,-1.40625000e-03,-4.57812500e-02
-9.18405000e-07,3.75000000e-03,-8.75000000e-04,-6.56250000e-04,-4.20312500e-02
-9.15205000e-07,1.01562500e-02,-4.06250000e-04,-2.03125000e-03,-3.34375000e-02
-9.12005000e-07,4.53125000e-03,-1.09375000e-03,-1.28125000e-03,-4.50000000e-02
-9.08805000e-07,8.28125000e-03,-4.37500000e-04,-1.03125000e-03,-4.68750000e-02
-9.05605000e-07,1.17187500e-02,-1.78125000e-03,9.37500000e-05,-3.46875000e-02
-9.02405000e-07,1.56250000e-04,-9.06250000e-04,-1.40625000e-03,-2.75000000e-02
-8.99205000e-07,1.87500000e-03,-1.75000000e-03,-5.31250000e-04,-3.70312500e-02
-8.96005000e-07,7.81250000e-04,-5.31250000e-04,5.93750000e-04,-3.34375000e-02
-8.92805000e-07,6.71875000e-03,-5.93750000e-04,-1.56250000e-04,-3.32812500e-02
-8.89605000e-07,6.25000000e-03,-7.18750000e-04,-1.78125000e-03,-3.43750000e-02
-8.86405000e-07,7.03125000e-03,-3.43750000e-04,3.43750000e-04,-3.89062500e-02
-8.83205000e-07,1.42187500e-02,-3.12500000e-05,-1.56250000e-04,-3.20312500e-02
-8.80005000e-07,8.59375000e-03,-1.65625000e-03,7.18750000e-04,-3.57812500e-02
-8.76805000e-07,1.35937500e-02,-1.87500000e-04,-1.15625000e-03,-3.65625000e-02
-8.73605000e-07,1.01562500e-02,-7.18750000e-04,8.43750000e-04,-3.85937500e-02
-8.70405000e-07,4.06250000e-03,-2.81250000e-04,-4.06250000e-04,-3.82812500e-02
-8.67205000e-07,8.28125000e-03,-1.21875000e-03,2.18750000e-04,-3.87500000e-02
-8.64005000e-07,6.56250000e-03,-2.43750000e-03,2.18750000e-04,-4.03125000e-02
-8.60805000e-07,1.40625000e-02,-6.87500000e-04,-4.06250000e-04,-2.81250000e-02
-8.57605000e-07,1.40625000e-02,-1.09375000e-03,-1.03125000e-03,-3.35937500e-02
-8.54405000e-07,1.34375000e-02,-2.21875000e-03,-1.28125000e-03,-2.71875000e-02
-8.51205000e-07,1.26562500e-02,-3.12500000e-04,-5.31250000e-04,-3.28125000e-02
-8.48005000e-07,7.34375000e-03,-4.06250000e-04,-1.03125000e-03,-3.53125000e-02
-8.44805000e-07,1.06250000e-02,-1.06250000e-03,-4.37500000e-04,-3.56250000e-02
-8.41605000e-07,5.31250000e-03,-2.50000000e-04,-1.15625000e-03,-4.09375000e-02
-8.38405000e-07,3.28125000e-03,-6.87500000e-04,-2.81250000e-04,-3.34375000e-02
-8.35205000e-07,-2.34375000e-03,-2.03125000e-03,-7.81250000e-04,-3.01562500e-02
-8.32005000e-07,6.25000000e-04,-1.78125000e-03,-1.78125000e-03,-2.84375000e-02
-8.28805000e-07,8.75000000e-03,-1.78125000e-03,-1.53125000e-03,-4.56250000e-02
-8.25605000e-07,1.87500000e-03,-1.34375000e-03,-1.15625000e-03,-3.92187500e-02
-8.22405000e-07,8.28125000e-03,-1.12500000e-03,-6.56250000e-04,-3.90625000e-02
-8.19205000e-07,3.28125000e-03,-5.62500000e-04,-1.90625000e-03,-4.29687500e-02
-8.16005000e-07,2.50000000e-03,-1.50000000e-03,-1.56250000e-04,-4.04687500e-02
-8.12805000e-07,6.40625000e-03,1.87500000e-04,9.37500000e-05,-3.89062500e-02
-8.09605000e-07,7.96875000e-03,6.25000000e-05,-1.40625000e-03,-3.64062500e-02
-8.06405000e-07,1.76562500e-02,-9.06250000e-04,-1.40625000e-03,-3.43750000e-02
-8.03205000e-07,1.90625000e-02,-3.12500000e-04,-3.12500000e-05,-3.60937500e-02
-8.00005000e-07,1.46875000e-02,-4.68750000e-04,-2.81250000e-04,-3.65625000e-02
-7.96805000e-07,1.92187500e-02,-3.12500000e-04,2.18750000e-04,-3.98437500e-02
-7.93605000e-07,1.34375000e-02,-1.25000000e-03,-1.40625000e-03,-3.51562500e-02
-7.90405000e-07,4.06250000e-03,-1.12500000e-03,-2.81250000e-04,-3.95312500e-02
-7.87205000e-07,7.96875000e-03,-1.87500000e-04,-1.78125000e-03,-4.04687500e-02
-7.84005000e-07,3.59375000e-03,-6.87500000e-04,-1.28125000e-03,-3.64062500e-02
-7.80805000e-07,6.25000000e-04,-2.71875000e-03,-1.93750000e-03,-4.29687500e-02
-7.77605000e-07,8.90625000e-03,-1.87500000e-03,-7.81250000e-04,-4.48437500e-02
-7.74405000e-07,-3.12500000e-03,-1.62500000e-03,-7.81250000e-04,-4.93750000e-02
-7.71205000e-07,7.65625000e-03,-1.12500000e-03,-1.53125000e-03,-5.37500000e-02
-7.68005000e-07,4.68750000e-03,-7.50000000e-04,-1.40625000e-03,-3.92187500e-02
-7.64805000e-07,6.09375000e-03,-1.25000000e-03,-1.56250000e-04,-4.34375000e-02
-7.61605000e-07,7.18750000e-03,-4.06250000e-04,-1.40625000e-03,-3.18750000e-02
-7.58405000e-07,-1.87500000e-03,-1.90625000e-03,-1.65625000e-03,-3.56250000e-02
-7.55205000e-07,-6.25000000e-04,-1.25000000e-03,-5.62500000e-04,-4.09375000e-02
-7.52005000e-07,9.21875000e-03,-2.37500000e-03,-1.28125000e-03,-3.68750000e-02
-7.48805000e-07,-7.50000000e-03,-1.34375000e-03,-1.65625000e-03,-3.45312500e-02
-7.45605000e-07,4.53125000e-03,-1.34375000e-03,-7.81250000e-04,-3.21875000e-02
-7.42405000e-07,1.53125000e-02,-1.34375000e-03,-1.53125000e-03,-3.07812500e-02
-7.39205000e-07,7.50000000e-03,-1.37500000e-03,-1.40625000e-03,-3.06250000e-02
-7.36005000e-07,1.32812500e-02,9.37500000e-05,-7.81250000e-04,-3.56250000e-02
-7.32805000e-07,1.25000000e-02,3.12500000e-05,-1.53125000e-03,-2.70312500e-02
-7.29605000e-07,1.29687500e-02,-2.09375000e-03,-1.28125000e-03,-2.73437500e-02
-7.26405000e-07,1.84375000e-02,-1.06250000e-03,-1.40625000e-03,-3.62500000e-02
-7.23205000e-07,6.56250000e-03,-1.75000000e-03,-5.31250000e-04,-2.34375000e-02
-7.20005000e-07,1.00000000e-02,-1.00000000e-03,-3.12500000e-05,-3.07812500e-02
-7.16805000e-07,8.59375000e-03,-6.25000000e-05,-1.40625000e-03,-2.93750000e-02
-7.13605000e-07,1.59375000e-02,-4.68750000e-04,2.18750000e-04,-2.96875000e-02
-7.10405000e-07,2.81250000e-03,-8.75000000e-04,-1.28125000e-03,-3.43750000e-02
-7.07205000e-07,1.07812500e-02,-9.37500000e-05,-5.31250000e-04,-2.95312500e-02
-7.04005000e-07,4.68750000e-03,-4.68750000e-04,-7.81250000e-04,-3.98437500e-02
-7.00805000e-07,9.84375000e-03,-2.75000000e-03,-7.81250000e-04,-2.81250000e-02
-6.97605000e-07,7.18750000e-03,-2.62500000e-03,-3.12500000e-05,-3.71875000e-02
-6.94405000e-07,6.25000000e-03,-2.00000000e-03,-2.81250000e-04,-3.79687500e-02
-6.91205000e-07,-1.25000000e-03,-3.12500000e-04,-5.31250000e-04,-4.14062500e-02
-6.88005000e-07,6.87500000e-03,-1.59375000e-03,-2.81250000e-04,-4.46875000e-02
-6.84805000e-07,1.87500000e-03,-8.12500000e-04,-1.78125000e-03,-3.25000000e-02
-6.81605000e-07,1.87500000e-03,-4.37500000e-04,-1.40625000e-03,-2.20312500e-02
-6.78405000e-07,6.87500000e-03,-1.00000000e-03,-1.90625000e-03,-2.96875000e-02
-6.75205000e-07,1.23437500e-02,-1.87500000e-04,-7.81250000e-04,-3.04687500e-02
-6.72005000e-07,1.25000000e-03,-1.18750000e-03,-1.28125000e-03,-3.07812500e-02
-6.68805000e-07,1.68750000e-02,-3.12500000e-04,-1.56250000e-04,-3.00000000e-02
-6.65605000e-07,1.70312500e-02,-1.56250000e-04,-1.15625000e-03,-3.60937500e-02
-6.62405000e-07,7.96875000e-03,-1.71875000e-03,-1.15625000e-03,-2.43750000e-02
-6.59205000e-07,1.90625000e-02,9.37500000e-05,-6.87500000e-04,-2.64062500e-02
-6.56005000e-07,1.12500000e-02,1.87500000e-04,-5.31250000e-04,-2.32812500e-02
-6.52805000e-07,1.32812500e-02,-9.06250000e-04,-4.37500000e-04,-2.73437500e-02
-6.49605000e-07,8.12500000e-03,-6.87500000e-04,-1.65625000e-03,-1.81250000e-02
-6.46405000e-07,4.84375000e-03,-1.75000000e-03,-5.31250000e-04,-3.25000000e-02
-6.43205000e-07,1.32812500e-02,4.06250000e-04,-1.78125000e-03,-2.51562500e-02
-6.40005000e-07,2.81250000e-03,-1.03125000e-03,-1.03125000e-03,-2.60937500e-02
-6.36805000e-07,1.26562500e-02,-1.37500000e-03,-1.28125000e-03,-3.35937500e-02
-6.33605000e-07,1.20312500e-02,-5.62500000e-04,-1.56250000e-04,-3.04687500e-02
-6.30405000e-07,8.28125000e-03,-1.62500000e-03,-6.56250000e-04,-1.85937500e-02
-6.27205000e-07,1.39062500e-02,-8.12500000e-04,-4.06250000e-04,-3.07812500e-02
-6.24005000e-07,1.15625000e-02,-2.25000000e-03,-4.06250000e-04,-2.76562500e-02
-6.20805000e-07,8.90625000e-03,-1.59375000e-03,-2.81250000e-04,-3.48437500e-02
-6.17605000e-07,1.65625000e-02,-5.93750000e-04,-6.56250000e-04,-3.40625000e-02
-6.14405000e-07,1.48437500e-02,-1.50000000e-03,-2.81250000e-04,-3.26562500e-02
-6.11205000e-07,7.03125000e-03,-6.87500000e-04,-1.03125000e-03,-3.90625000e-02
-6.08005000e-07,1.62500000e-02,-1.46875000e-03,5.93750000e-04,-3.23437500e-02
-6.04805000e-07,6.87500000e-03,-1.25000000e-04,-1.56250000e-04,-2.65625000e-02
-6.01605000e-07,1.65625000e-02,-1.75000000e-03,-1.03125000e-03,-1.71875000e-02
-5.98405000e-07,1.57812500e-02,-9.37500000e-04,3.43750000e-04,-3.68750000e-02
-5.95205000e-07,8.12500000e-03,-1.31250000e-03,-7.81250000e-04,-2.90625000e-02
-5.92005000e-07,9.37500000e-03,-3.43750000e-04,-1.40625000e-03,-3.23437500e-02
-5.88805000e-07,4.21875000e-03,-1.87500000e-03,-3.12500000e-05,-3.03125000e-02
-5.85605000e-07,2.81250000e-03,-2.00000000e-03,-1.65625000e-03,-3.46875000e-02
-5.82405000e-07,2.34375000e-03,-8.43750000e-04,-1.40625000e-03,-3.10937500e-02
-5.79205000e-07,3.90625000e-03,-1.46875000e-03,-6.56250000e-04,-2.85937500e-02
-5.76005000e-07,4.06250000e-03,-1.21875000e-03,-2.15625000e-03,-3.04687500e-02
-5.72805000e-07,5.78125000e-03,-2.75000000e-03,2.18750000e-04,-2.03125000e-02
-5.69605000e-07,-3.75000000e-03,-2.34375000e-03,-1.15625000e-03,-2.71875000e-02
-5.66405000e-07,6.71875000e-03,-1.62500000e-03,-4.06250000e-04,-3.51562500e-02
-5.63205000e-07,-2.65625000e-03,-8.43750000e-04,-1.15625000e-03,-3.78125000e-02
-5.60005000e-07,1.56250000e-04,-2.50000000e-03,-2.65625000e-03,-3.20312500e-02
-5.56805000e-07,6.56250000e-03,-4.06250000e-04,-4.06250000e-04,-4.18750000e-02
-5.53605000e-07,-5.15625000e-03,-8.43750000e-04,-1.56250000e-03,-3.62500000e-02
-5.50405000e-07,-1.56250000e-03,-1.75000000e-03,-1.28125000e-03,-3.65625000e-02
-5.47205000e-07,3.90625000e-03,-4.06250000e-04,-5.31250000e-04,-3.64062500e-02
-5.44005000e-07,2.03125000e-03,-2.34375000e-03,-1.65625000e-03,-4.46875000e-02
-5.40805000e-07,-5.00000000e-03,-5.00000000e-04,-1.90625000e-03,-4.17187500e-02
-5.37605000e-07,-1.14062500e-02,-1.46875000e-03,-1.90625000e-03,-3.82812500e-02
-5.34405000e-07,-1.40625000e-03,-8.12500000e-04,-1.43750000e-03,-4.65625000e-02
-5.31205000e-07,-3.12500000e-03,-1.18750000e-03,-6.56250000e-04,-4.01562500e-02
-5.28005000e-07,-1.37500000e-02,-1.06250000e-03,-2.28125000e-03,-5.31250000e-02
-5.24805000e-07,-2.50000000e-03,-1.75000000e-03,-1.53125000e-03,-4.56250000e-02
-5.21605000e-07,-6.25000000e-04,-2.34375000e-03,2.18750000e-04,-5.20312500e-02
-5.18405000e-07,-7.96875000e-03,-1.87500000e-03,-2.81250000e-04,-3.73437500e-02
-5.15205000e-07,-1.40625000e-03,-7.18750000e-04,-1.53125000e-03,-4.40625000e-02
-5.12005000e-07,-1.40625000e-03,-9.06250000e-04,-5.31250000e-04,-3.89062500e-02
-5.08805000e-07,-3.43750000e-03,-1.34375000e-03,-1.28125000e-03,-4.12500000e-02
-5.05605000e-07,3.12500000e-04,-1.87500000e-03,-6.56250000e-04,-4.64062500e-02
-5.02405000e-07,-1.21875000e-02,-1.31250000e-03,-1.31250000e-03,-4.42187500e-02
-4.99205000e-07,2.50000000e-03,-1.21875000e-03,-1.90625000e-03,-4.28125000e-02
-4.96005000e-07,-4.37500000e-03,-1.84375000e-03,-2.06250000e-03,-4.18750000e-02
-4.92805000e-07,-6.40625000e-03,-1.18750000e-03,-1.15625000e-03,-3.84375000e-02
-4.89605000e-07,2.65625000e-03,-1.12500000e-03,-5.31250000e-04,-4.31250000e-02
-4.86405000e-07,1.56250000e-04,-1.31250000e-03,-4.06250000e-04,-3.78125000e-02
-4.83205000e-07,-3.28125000e-03,-1.21875000e-03,-1.03125000e-03,-3.96875000e-02
-4.80005000e-07,-4.21875000e-03,-1.93750000e-03,-5.31250000e-04,-4.01562500e-02
-4.76805000e-07,4.53125000e-03,-3.75000000e-04,-6.56250000e-04,-3.43750000e-02
-4.73605000e-07,5.62500000e-03,-2.59375000e-03,-1.78125000e-03,-5.32812500e-02
-4.70405000e-07,-3.43750000e-03,-2.75000000e-03,-1.78125000e-03,-4.26562500e-02
-4.67205000e-07,7.03125000e-03,-2.87500000e-03,-1.78125000e-03,-4.14062500e-02
-4.64005000e-07,2.65625000e-03,-1.90625000e-03,-1.78125000e-03,-4.45312500e-02
-4.60805000e-07,1.35937500e-02,-1.31250000e-03,-1.28125000e-03,-3.46875000e-02
-4.57605000e-07,-1.56250000e-04,-1.87500000e-03,9.37500000e-05,-4.93750000e-02
-4.54405000e-07,2.50000000e-03,-1.28125000e-03,-1.28125000e-03,-5.28125000e-02
-4.51205000e-07,-4.53125000e-03,-7.18750000e-04,-1.53125000e-03,-5.82812500e-02
-4.48005000e-07,-5.93750000e-03,-3.12500000e-03,-1.15625000e-03,-5.39062500e-02
-4.44805000e-07,-4.53125000e-03,-1.50000000e-03,-1.53125000e-03,-5.43750000e-02
-4.41605000e-07,4.37500000e-03,-1.09375000e-03,-1.28125000e-03,-4.60937500e-02
-4.38405000e-07,-3.12500000e-04,-1.75000000e-03,-2.28125000e-03,-5.43750000e-02
-4.35205000e-07,-8.59375000e-03,-2.46875000e-03,-1.40625000e-03,-4.42187500e-02
-4.32005000e-07,-5.46875000e-03,-2.25000000e-03,-1.31250000e-03,-5.53125000e-02
-4.28805000e-07,-1.09375000e-02,-1.31250000e-03,-2.53125000e-03,-5.01562500e-02
-4.25605000e-07,-1.09375000e-03,-1.50000000e-03,-1.78125000e-03,-4.21875000e-02
-4.22405000e-07,2.81250000e-03,-1.34375000e-03,-1.40625000e-03,-4.85937500e-02
-4.19205000e-07,4.68750000e-03,-1.12500000e-03,-1.65625000e-03,-5.23437500e-02
-4.16005000e-07,-1.09375000e-03,-1.96875000e-03,-1.15625000e-03,-4.67187500e-02
-4.12805000e-07,7.81250000e-03,-6.25000000e-05,-1.53125000e-03,-4.95312500e-02
-4.09605000e-07,1.25000000e-02,-1.34375000e-03,-5.31250000e-04,-5.25000000e-02
-4.06405000e-07,-3.75000000e-03,-1.00000000e-03,-2.03125000e-03,-5.18750000e-02
-4.03205000e-07,4.06250000e-03,-5.62500000e-04,-2.03125000e-03,-5.04687500e-02
-4.00005000e-07,-2.81250000e-03,-8.12500000e-04,-1.65625000e-03,-3.56250000e-02
-3.96805000e-07,2.65625000e-03,-2.50000000e-03,-1.87500000e-04,-3.79687500e-02
-3.93605000e-07,7.81250000e-04,-3.56250000e-03,-1.53125000e-03,-4.35937500e-02
-3.90405000e-07,5.31250000e-03,-1.96875000e-03,-1.65625000e-03,-3.73437500e-02
-3.87205000e-07,2.96875000e-03,-1.75000000e-03,-2.28125000e-03,-3.43750000e-02
-3.84005000e-07,-6.40625000e-03,-6.87500000e-04,-1.28125000e-03,-4.00000000e-02
-3.80805000e-07,-7.96875000e-03,-1.62500000e-03,-2.18750000e-03,-3.98437500e-02
-3.77605000e-07,2.81250000e-03,-1.50000000e-03,-1.56250000e-04,-4.00000000e-02
-3.74405000e-07,-6.25000000e-03,-9.68750000e-04,-1.28125000e-03,-2.98437500e-02
-3.71205000e-07,2.65625000e-03,-8.12500000e-04,-1.28125000e-03,-4.17187500e-02
-3.68005000e-07,4.68750000e-04,-1.96875000e-03,-1.43750000e-03,-4.01562500e-02
-3.64805000e-07,-1.07812500e-02,-2.09375000e-03,-1.31250000e-03,-5.14062500e-02
-3.61605000e-07,-8.59375000e-03,-1.84375000e-03,-2.15625000e-03,-5.42187500e-02
-3.58405000e-07,-4.68750000e-04,-1.31250000e-03,-1.15625000e-03,-5.14062500e-02
-3.55205000e-07,-5.00000000e-03,-1.75000000e-03,-6.56250000e-04,-6.28125000e-02
-3.52005000e-07,5.00000000e-03,-3.12500000e-04,-5.62500000e-04,-5.21875000e-02
-3.48805000e-07,-5.78125000e-03,-1.75000000e-03,-1.93750000e-03,-5.26562500e-02
-3.45605000e-07,-8.43750000e-03,-1.87500000e-03,-1.15625000e-03,-4.62500000e-02
-3.42405000e-07,-7.18750000e-03,-2.59375000e-03,-4.06250000e-04,-5.14062500e-02
-3.39205000e-07,-4.53125000e-03,-2.09375000e-03,-1.65625000e-03,-5.64062500e-02
-3.36005000e-07,-2.03125000e-03,-2.18750000e-04,-1.03125000e-03,-5.15625000e-02
-3.32805000e-07,-4.21875000e-03,-2.21875000e-03,-1.40625000e-03,-4.51562500e-02
-3.29605000e-07,-7.65625000e-03,-1.34375000e-03,-2.43750000e-03,-4.71875000e-02
-3.26405000e-07,7.81250000e-04,1.87500000e-04,-1.90625000e-03,-5.04687500e-02
-3.23205000e-07,-4.06250000e-03,-3.12500000e-04,-1.53125000e-03,-4.90625000e-02
