Source/in sensor computing/Collective dynamics and long-range order in thermal neuristor networks/data/thermal_coupling/Ben012_1_325K_1E3_12k_2.6V_1E2_12K_2.6V_sync_000_ALL.csv

Model,MSO54,,,,,,,,,
Channel,CH1,,Channel,CH2,,Channel,CH3,,Channel,CH4
Waveform Type,ANALOG,,Waveform Type,ANALOG,,Waveform Type,ANALOG,,Waveform Type,ANALOG
Horizontal Units,s,,Horizontal Units,s,,Horizontal Units,s,,Horizontal Units,s
Sample Interval,3.20E-09,,Sample Interval,3.20E-09,,Sample Interval,3.20E-09,,Sample Interval,3.20E-09
Record Length,31250,,Record Length,31250,,Record Length,31250,,Record Length,31250
Zero Index,343.0515625,,Zero Index,343.0515625,,Zero Index,343.0515625,,Zero Index,343.0515625
Vertical Units,V,,Vertical Units,V,,Vertical Units,V,,Vertical Units,V
,,,,,,,,,,
ANALOG_Thumbnail,,,ANALOG_Thumbnail,,,ANALOG_Thumbnail,,,ANALOG_Thumbnail,
,,,,,,,,,,
TIME,CH1,CH2,CH3,CH4,,,,,,
-1.10E-06,-4.69E-03,-8.13E-04,-2.06E-03,-3.33E-02,,,,,,
-1.09E-06,-4.69E-03,-1.13E-03,-1.03E-03,-2.77E-02,,,,,,
-1.09E-06,-2.97E-03,-1.75E-03,-7.81E-04,-3.67E-02,,,,,,
-1.09E-06,2.03E-03,-2.53E-03,-3.13E-05,-3.30E-02,,,,,,
-1.08E-06,-3.28E-03,-9.06E-04,-6.56E-04,-3.67E-02,,,,,,
-1.08E-06,2.19E-03,-1.50E-03,-7.81E-04,-3.34E-02,,,,,,
-1.08E-06,-4.53E-03,-2.72E-03,-5.31E-04,-3.23E-02,,,,,,
-1.08E-06,1.25E-03,-2.16E-03,-6.56E-04,-3.42E-02,,,,,,
-1.07E-06,-2.19E-03,-2.09E-03,5.94E-04,-3.25E-02,,,,,,
-1.07E-06,-1.56E-03,-1.25E-04,-7.81E-04,-2.67E-02,,,,,,
-1.07E-06,4.53E-03,-5.94E-04,-1.03E-03,-2.75E-02,,,,,,
-1.06E-06,1.88E-03,-1.13E-03,-5.31E-04,-2.91E-02,,,,,,
-1.06E-06,4.84E-03,-2.09E-03,-2.81E-04,-2.39E-02,,,,,,
-1.06E-06,-5.78E-03,4.38E-04,-3.13E-05,-2.95E-02,,,,,,
-1.05E-06,1.88E-03,-1.63E-03,4.38E-04,-2.58E-02,,,,,,
-1.05E-06,4.69E-04,-1.00E-03,-1.56E-04,-2.36E-02,,,,,,
-1.05E-06,2.19E-03,1.88E-04,-1.16E-03,-2.94E-02,,,,,,
-1.04E-06,-9.38E-04,-2.81E-04,1.22E-03,-3.00E-02,,,,,,
-1.04E-06,6.88E-03,-1.50E-03,-7.81E-04,-3.83E-02,,,,,,
-1.04E-06,3.91E-03,-2.13E-03,-1.41E-03,-3.56E-02,,,,,,
-1.03E-06,-1.72E-03,-1.84E-03,-7.81E-04,-3.03E-02,,,,,,
-1.03E-06,1.98E-02,-7.19E-04,-7.81E-04,-3.09E-02,,,,,,
-1.03E-06,2.81E-03,4.69E-04,-4.06E-04,-3.23E-02,,,,,,
-1.02E-06,1.02E-02,-1.31E-03,5.94E-04,-3.39E-02,,,,,,
-1.02E-06,1.03E-02,-3.13E-04,-3.13E-05,-2.72E-02,,,,,,
-1.02E-06,8.75E-03,-3.13E-04,3.44E-04,-3.75E-02,,,,,,
-1.01E-06,-7.81E-03,-2.78E-03,-1.16E-03,-4.50E-02,,,,,,
-1.01E-06,1.25E-03,-1.53E-03,9.38E-05,-3.38E-02,,,,,,
-1.01E-06,-1.41E-03,-3.38E-03,-6.56E-04,-3.72E-02,,,,,,
-1.00E-06,2.97E-03,6.88E-04,-1.16E-03,-3.45E-02,,,,,,
-1.00E-06,-2.03E-03,-1.06E-03,-1.41E-03,-3.50E-02,,,,,,
-9.99E-07,1.03E-02,-7.19E-04,-2.81E-04,-3.16E-02,,,,,,
-9.95E-07,-2.66E-03,-8.44E-04,-4.06E-04,-2.80E-02,,,,,,
-9.92E-07,1.28E-02,-1.50E-03,-1.53E-03,-3.03E-02,,,,,,
-9.89E-07,3.13E-03,-2.72E-03,-3.13E-05,-2.98E-02,,,,,,
-9.86E-07,0.00E+00,-1.50E-03,7.19E-04,-2.81E-02,,,,,,
-9.83E-07,5.63E-03,-1.72E-03,-1.41E-03,-3.36E-02,,,,,,
-9.79E-07,4.69E-03,-1.34E-03,-7.81E-04,-4.66E-02,,,,,,
-9.76E-07,-1.56E-03,-5.63E-04,-1.03E-03,-2.98E-02,,,,,,
-9.73E-07,0.00E+00,-1.47E-03,5.94E-04,-4.53E-02,,,,,,
-9.70E-07,2.66E-03,-9.69E-04,-1.41E-03,-3.33E-02,,,,,,
-9.67E-07,2.50E-03,-1.13E-03,-4.06E-04,-4.03E-02,,,,,,
-9.63E-07,-3.28E-03,-2.50E-03,-3.13E-05,-4.05E-02,,,,,,
-9.60E-07,-3.13E-04,-2.34E-03,-4.06E-04,-4.59E-02,,,,,,
-9.57E-07,1.56E-04,-1.22E-03,-6.56E-04,-3.86E-02,,,,,,
-9.54E-07,4.84E-03,-1.63E-03,-6.56E-04,-3.58E-02,,,,,,
-9.51E-07,7.97E-03,-1.63E-03,-1.78E-03,-3.16E-02,,,,,,
-9.47E-07,-4.53E-03,-1.28E-03,-2.03E-03,-3.38E-02,,,,,,
-9.44E-07,5.16E-03,-9.38E-04,-1.41E-03,-3.94E-02,,,,,,
-9.41E-07,1.11E-02,-1.66E-03,-6.56E-04,-2.86E-02,,,,,,
-9.38E-07,9.84E-03,-1.50E-03,-4.06E-04,-3.53E-02,,,,,,
-9.35E-07,7.03E-03,-1.50E-03,9.38E-05,-2.42E-02,,,,,,
-9.31E-07,1.05E-02,-1.31E-03,-2.16E-03,-3.09E-02,,,,,,
-9.28E-07,1.16E-02,1.25E-04,-1.28E-03,-3.09E-02,,,,,,
-9.25E-07,1.06E-02,-9.38E-04,9.38E-05,-3.70E-02,,,,,,
-9.22E-07,3.44E-03,-1.22E-03,2.19E-04,-3.05E-02,,,,,,
-9.19E-07,-2.19E-03,-7.50E-04,-4.06E-04,-3.30E-02,,,,,,
-9.15E-07,5.47E-03,-1.00E-03,-2.81E-04,-3.05E-02,,,,,,
-9.12E-07,1.27E-02,-2.03E-03,-1.28E-03,-3.41E-02,,,,,,
-9.09E-07,1.11E-02,-1.63E-03,-1.56E-04,-3.23E-02,,,,,,
-9.06E-07,6.41E-03,-2.22E-03,-6.56E-04,-2.41E-02,,,,,,
-9.03E-07,1.14E-02,-3.44E-04,-4.06E-04,-2.47E-02,,,,,,
-8.99E-07,7.66E-03,-8.13E-04,-5.31E-04,-2.19E-02,,,,,,
-8.96E-07,5.78E-03,-1.63E-03,-1.03E-03,-3.52E-02,,,,,,
-8.93E-07,1.41E-02,-2.81E-04,-1.41E-03,-3.61E-02,,,,,,
-8.90E-07,9.53E-03,-5.94E-04,-5.31E-04,-3.31E-02,,,,,,
-8.87E-07,9.69E-03,-1.47E-03,-1.16E-03,-3.89E-02,,,,,,
-8.83E-07,1.09E-02,-3.13E-04,9.38E-05,-3.55E-02,,,,,,
-8.80E-07,5.78E-03,-2.22E-03,-5.31E-04,-3.23E-02,,,,,,
-8.77E-07,3.44E-03,-5.31E-04,-1.41E-03,-2.98E-02,,,,,,
-8.74E-07,-3.13E-04,-2.34E-03,-1.41E-03,-2.72E-02,,,,,,
-8.71E-07,6.72E-03,-2.81E-04,1.22E-03,-2.95E-02,,,,,,
-8.67E-07,1.11E-02,-1.56E-03,-1.03E-03,-2.73E-02,,,,,,
-8.64E-07,1.44E-02,-9.06E-04,2.19E-04,-2.02E-02,,,,,,
-8.61E-07,1.44E-02,-2.47E-03,-2.03E-03,-3.22E-02,,,,,,
-8.58E-07,2.16E-02,-1.88E-03,9.38E-05,-2.91E-02,,,,,,
-8.55E-07,8.91E-03,-1.97E-03,-1.41E-03,-2.98E-02,,,,,,
-8.51E-07,1.41E-02,4.69E-04,2.81E-04,-3.39E-02,,,,,,
-8.48E-07,1.19E-02,-1.63E-03,-4.06E-04,-2.80E-02,,,,,,
-8.45E-07,2.03E-02,-1.72E-03,8.44E-04,-2.86E-02,,,,,,
-8.42E-07,1.00E-02,-3.44E-04,-1.78E-03,-2.44E-02,,,,,,
-8.39E-07,4.22E-03,-1.25E-03,-1.56E-04,-3.34E-02,,,,,,
-8.35E-07,4.38E-03,-1.88E-03,-2.81E-04,-3.47E-02,,,,,,
-8.32E-07,2.81E-03,-2.75E-03,-1.16E-03,-3.22E-02,,,,,,
-8.29E-07,1.08E-02,-1.50E-03,-1.41E-03,-3.34E-02,,,,,,
-8.26E-07,1.56E-03,-7.19E-04,-1.56E-04,-3.97E-02,,,,,,
-8.23E-07,6.41E-03,-1.50E-03,-4.06E-04,-3.67E-02,,,,,,
-8.19E-07,-1.88E-03,-2.50E-03,-1.16E-03,-3.11E-02,,,,,,
-8.16E-07,2.50E-03,-2.41E-03,9.38E-05,-4.66E-02,,,,,,
-8.13E-07,2.97E-03,-8.75E-04,-1.53E-03,-3.50E-02,,,,,,
-8.10E-07,4.38E-03,-2.09E-03,-1.41E-03,-4.36E-02,,,,,,
-8.07E-07,5.47E-03,-1.88E-04,7.19E-04,-4.23E-02,,,,,,
-8.03E-07,1.88E-03,-1.97E-03,-1.03E-03,-3.73E-02,,,,,,
-8.00E-07,5.78E-03,-1.63E-03,-6.56E-04,-3.14E-02,,,,,,
-7.97E-07,7.97E-03,-1.59E-03,-2.16E-03,-2.84E-02,,,,,,
-7.94E-07,4.22E-03,-9.69E-04,9.38E-05,-3.08E-02,,,,,,
-7.91E-07,1.05E-02,-4.38E-04,-2.81E-04,-2.83E-02,,,,,,
-7.87E-07,6.09E-03,8.75E-04,9.38E-05,-3.53E-02,,,,,,
-7.84E-07,1.69E-02,-1.09E-03,-1.66E-03,-2.58E-02,,,,,,
-7.81E-07,1.53E-02,-9.38E-04,5.94E-04,-3.63E-02,,,,,,
-7.78E-07,1.03E-02,-2.59E-03,-1.53E-03,-4.02E-02,,,,,,
-7.75E-07,-1.56E-03,-4.69E-04,-1.53E-03,-4.36E-02,,,,,,
-7.71E-07,5.31E-03,-1.19E-03,-4.06E-04,-3.61E-02,,,,,,
-7.68E-07,1.88E-03,-2.50E-03,-3.13E-05,-3.84E-02,,,,,,
-7.65E-07,1.09E-02,-1.56E-04,-6.56E-04,-3.44E-02,,,,,,
-7.62E-07,3.28E-03,-8.44E-04,-1.56E-04,-3.25E-02,,,,,,
-7.59E-07,7.34E-03,-2.22E-03,-1.41E-03,-4.53E-02,,,,,,
-7.55E-07,2.34E-03,-2.72E-03,-2.81E-04,-3.91E-02,,,,,,
-7.52E-07,-5.47E-03,-1.56E-03,-2.81E-04,-3.56E-02,,,,,,
-7.49E-07,-5.16E-03,-2.50E-04,-1.03E-03,-3.16E-02,,,,,,
-7.46E-07,4.69E-04,-1.50E-03,-1.03E-03,-1.86E-02,,,,,,
-7.43E-07,-4.06E-03,-2.13E-03,-7.81E-04,-3.34E-02,,,,,,
-7.39E-07,2.50E-03,-2.00E-03,-1.91E-03,-3.92E-02,,,,,,
-7.36E-07,-1.41E-03,6.25E-05,-1.16E-03,-4.00E-02,,,,,,
-7.33E-07,8.13E-03,-2.22E-03,-6.56E-04,-3.11E-02,,,,,,
-7.30E-07,7.97E-03,-1.50E-03,-3.13E-05,-3.42E-02,,,,,,
-7.27E-07,-3.59E-03,-9.38E-04,-6.56E-04,-3.84E-02,,,,,,
-7.23E-07,1.17E-02,2.19E-04,-1.56E-04,-3.67E-02,,,,,,
-7.20E-07,9.38E-03,-2.13E-03,-4.06E-04,-3.69E-02,,,,,,
-7.17E-07,1.11E-02,-5.31E-04,-7.81E-04,-2.88E-02,,,,,,
-7.14E-07,1.64E-02,-1.28E-03,9.38E-05,-2.91E-02,,,,,,
-7.11E-07,7.34E-03,-2.00E-03,-1.66E-03,-2.45E-02,,,,,,
-7.07E-07,9.06E-03,-4.38E-04,-1.16E-03,-2.39E-02,,,,,,
-7.04E-07,1.59E-02,-6.88E-04,-1.53E-03,-2.41E-02,,,,,,
-7.01E-07,5.47E-03,-3.13E-04,-1.03E-03,-1.80E-02,,,,,,
-6.98E-07,2.66E-03,4.06E-04,-5.31E-04,-2.36E-02,,,,,,
-6.95E-07,8.13E-03,-1.16E-03,-1.28E-03,-2.22E-02,,,,,,
-6.91E-07,-1.88E-03,-4.69E-04,-7.81E-04,-2.59E-02,,,,,,
-6.88E-07,1.67E-02,-6.56E-04,-5.31E-04,-2.06E-02,,,,,,
-6.85E-07,8.91E-03,1.88E-04,-2.81E-04,-2.19E-02,,,,,,
-6.82E-07,9.53E-03,-1.19E-03,2.19E-04,-2.25E-02,,,,,,
-6.79E-07,1.44E-02,-2.22E-03,7.19E-04,-2.02E-02,,,,,,
-6.75E-07,9.53E-03,-2.22E-03,-2.81E-04,-1.69E-02,,,,,,
-6.72E-07,1.25E-02,-4.38E-04,8.44E-04,-2.88E-02,,,,,,
-6.69E-07,8.13E-03,-1.31E-03,-1.56E-04,-2.33E-02,,,,,,
-6.66E-07,5.63E-03,-2.16E-03,-6.56E-04,-3.14E-02,,,,,,
-6.63E-07,5.63E-03,-7.81E-04,-2.81E-04,-3.67E-02,,,,,,
-6.59E-07,5.94E-03,-1.25E-04,1.91E-03,-3.22E-02,,,,,,
-6.56E-07,4.53E-03,-8.13E-04,-3.13E-05,-2.64E-02,,,,,,
-6.53E-07,1.58E-02,-1.75E-03,4.69E-04,-2.75E-02,,,,,,
-6.50E-07,4.38E-03,-1.31E-03,-1.81E-03,-2.80E-02,,,,,,
-6.47E-07,1.03E-02,-1.50E-03,-4.06E-04,-2.91E-02,,,,,,
-6.43E-07,1.06E-02,-1.06E-03,-1.28E-03,-2.52E-02,,,,,,
-6.40E-07,-6.25E-04,-6.88E-04,-1.03E-03,-3.52E-02,,,,,,
-6.37E-07,1.09E-02,-6.25E-05,-5.31E-04,-3.84E-02,,,,,,
-6.34E-07,5.00E-03,1.25E-04,-5.31E-04,-2.75E-02,,,,,,
-6.31E-07,7.97E-03,-1.50E-03,-4.06E-04,-3.91E-02,,,,,,
-6.27E-07,8.91E-03,-1.66E-03,-4.06E-04,-3.89E-02,,,,,,
-6.24E-07,2.34E-03,-3.09E-03,1.88E-04,-3.70E-02,,,,,,
-6.21E-07,7.66E-03,-9.69E-04,-5.31E-04,-3.69E-02,,,,,,
-6.18E-07,-3.75E-03,-1.31E-03,-6.56E-04,-3.53E-02,,,,,,
-6.15E-07,-1.56E-03,-1.84E-03,-1.16E-03,-4.66E-02,,,,,,
-6.11E-07,9.38E-03,-7.81E-04,-6.56E-04,-4.95E-02,,,,,,
-6.08E-07,1.09E-03,-8.44E-04,-3.13E-05,-3.33E-02,,,,,,
-6.05E-07,-6.09E-03,-3.22E-03,-7.81E-04,-3.70E-02,,,,,,
-6.02E-07,4.22E-03,-1.34E-03,-4.06E-04,-4.28E-02,,,,,,
-5.99E-07,-5.00E-03,-1.84E-03,9.69E-04,-4.77E-02,,,,,,
-5.95E-07,3.59E-03,5.63E-04,-1.16E-03,-4.42E-02,,,,,,
-5.92E-07,9.69E-03,-2.00E-03,-6.56E-04,-3.69E-02,,,,,,
-5.89E-07,1.41E-03,-1.31E-03,-2.81E-04,-3.94E-02,,,,,,
-5.86E-07,3.44E-03,-6.56E-04,-4.06E-04,-4.95E-02,,,,,,
-5.83E-07,2.19E-03,-2.03E-03,-4.06E-04,-3.83E-02,,,,,,
-5.79E-07,1.88E-03,-2.25E-03,-1.03E-03,-3.98E-02,,,,,,
-5.76E-07,3.28E-03,-1.75E-03,-1.41E-03,-4.08E-02,,,,,,
-5.73E-07,-1.25E-03,-1.16E-03,-6.56E-04,-3.13E-02,,,,,,
-5.70E-07,6.41E-03,-7.50E-04,-1.66E-03,-4.02E-02,,,,,,
-5.67E-07,1.11E-02,-1.06E-03,-5.31E-04,-3.80E-02,,,,,,
-5.63E-07,7.03E-03,-2.38E-03,-1.28E-03,-2.78E-02,,,,,,
-5.60E-07,7.03E-03,-4.06E-04,-6.56E-04,-3.19E-02,,,,,,
-5.57E-07,7.03E-03,-1.09E-03,-7.81E-04,-4.03E-02,,,,,,
-5.54E-07,9.06E-03,-2.34E-03,-2.44E-03,-3.41E-02,,,,,,
-5.51E-07,1.27E-02,-1.56E-03,7.19E-04,-2.98E-02,,,,,,
-5.47E-07,5.47E-03,-1.72E-03,-7.81E-04,-3.33E-02,,,,,,
-5.44E-07,7.19E-03,-2.50E-03,-4.06E-04,-3.30E-02,,,,,,
-5.41E-07,7.03E-03,-1.75E-03,-6.56E-04,-3.19E-02,,,,,,
-5.38E-07,3.13E-03,-1.22E-03,-1.16E-03,-3.52E-02,,,,,,
-5.35E-07,8.44E-03,-7.81E-04,-1.56E-04,-4.33E-02,,,,,,
-5.31E-07,8.28E-03,-1.25E-03,2.19E-04,-3.09E-02,,,,,,
-5.28E-07,6.72E-03,-8.13E-04,-3.13E-05,-3.19E-02,,,,,,
-5.25E-07,5.47E-03,-1.47E-03,-5.31E-04,-4.50E-02,,,,,,
-5.22E-07,2.66E-03,-2.13E-03,-5.31E-04,-3.06E-02,,,,,,
-5.19E-07,8.28E-03,-1.25E-03,-7.81E-04,-3.66E-02,,,,,,
-5.15E-07,1.53E-02,-5.31E-04,-5.31E-04,-3.53E-02,,,,,,
-5.12E-07,4.53E-03,-1.88E-03,2.19E-04,-4.59E-02,,,,,,
-5.09E-07,9.38E-04,-4.38E-04,-2.81E-04,-4.72E-02,,,,,,
-5.06E-07,2.50E-03,-6.25E-04,-1.56E-04,-2.69E-02,,,,,,
-5.03E-07,1.05E-02,-9.38E-04,-1.53E-03,-4.00E-02,,,,,,
-4.99E-07,4.84E-03,-1.28E-03,8.44E-04,-4.30E-02,,,,,,
-4.96E-07,1.00E-02,-4.69E-04,-4.06E-04,-3.03E-02,,,,,,
-4.93E-07,6.72E-03,-8.44E-04,-4.06E-04,-2.94E-02,,,,,,
-4.90E-07,1.13E-02,-1.31E-03,2.19E-04,-2.75E-02,,,,,,
-4.87E-07,9.69E-03,-1.03E-03,5.94E-04,-3.64E-02,,,,,,
-4.83E-07,7.19E-03,-7.50E-04,-3.13E-05,-4.38E-02,,,,,,
-4.80E-07,5.47E-03,5.94E-04,-4.06E-04,-2.55E-02,,,,,,
-4.77E-07,1.39E-02,-1.34E-03,2.19E-04,-2.81E-02,,,,,,
-4.74E-07,8.91E-03,-1.72E-03,-4.06E-04,-3.39E-02,,,,,,
-4.71E-07,-3.13E-04,-2.72E-03,9.38E-05,-3.88E-02,,,,,,
-4.67E-07,4.69E-03,-1.25E-03,-1.78E-03,-3.78E-02,,,,,,
-4.64E-07,1.09E-03,-2.16E-03,-1.28E-03,-4.22E-02,,,,,,
-4.61E-07,-2.03E-03,-2.47E-03,-1.41E-03,-4.67E-02,,,,,,
-4.58E-07,1.56E-02,-1.59E-03,-1.41E-03,-3.75E-02,,,,,,
-4.55E-07,6.09E-03,-9.38E-05,-7.81E-04,-4.09E-02,,,,,,
-4.51E-07,9.38E-03,-2.34E-03,-2.81E-04,-3.64E-02,,,,,,
-4.48E-07,6.09E-03,-1.19E-03,4.69E-04,-4.50E-02,,,,,,
-4.45E-07,6.41E-03,-1.19E-03,-7.81E-04,-3.86E-02,,,,,,
-4.42E-07,1.34E-02,-1.34E-03,-7.81E-04,-3.89E-02,,,,,,
-4.39E-07,7.19E-03,-2.50E-03,-3.13E-05,-3.95E-02,,,,,,
-4.35E-07,6.88E-03,-1.75E-03,-5.31E-04,-3.59E-02,,,,,,
-4.32E-07,5.78E-03,1.88E-04,-2.16E-03,-4.02E-02,,,,,,
-4.29E-07,-2.66E-03,-9.38E-04,-5.31E-04,-2.73E-02,,,,,,
-4.26E-07,4.38E-03,-2.16E-03,-5.31E-04,-3.38E-02,,,,,,
-4.23E-07,9.69E-03,-1.28E-03,-6.56E-04,-2.95E-02,,,,,,
-4.19E-07,1.05E-02,-1.97E-03,-1.03E-03,-3.72E-02,,,,,,
-4.16E-07,7.03E-03,6.25E-05,-6.88E-04,-4.05E-02,,,,,,
-4.13E-07,8.59E-03,6.25E-05,-6.56E-04,-2.91E-02,,,,,,
-4.10E-07,8.44E-03,-1.00E-03,-6.56E-04,-2.63E-02,,,,,,
-4.07E-07,1.47E-02,-5.63E-04,-7.81E-04,-1.88E-02,,,,,,
-4.03E-07,9.69E-03,-1.38E-03,-1.53E-03,-1.95E-02,,,,,,
-4.00E-07,7.19E-03,-1.97E-03,-3.13E-05,-2.59E-02,,,,,,
-3.97E-07,1.36E-02,-2.09E-03,-6.56E-04,-3.02E-02,,,,,,
-3.94E-07,6.09E-03,-9.38E-04,-1.16E-03,-4.02E-02,,,,,,
-3.91E-07,3.75E-03,-5.63E-04,9.38E-05,-2.75E-02,,,,,,
-3.87E-07,-1.72E-03,-1.22E-03,-7.81E-04,-3.42E-02,,,,,,
-3.84E-07,4.22E-03,-1.09E-03,-1.78E-03,-3.14E-02,,,,,,
-3.81E-07,3.44E-03,-2.00E-03,-1.41E-03,-3.86E-02,,,,,,
-3.78E-07,5.63E-03,-2.03E-03,-1.78E-03,-4.47E-02,,,,,,
-3.75E-07,6.41E-03,-1.72E-03,-1.53E-03,-3.80E-02,,,,,,
-3.71E-07,3.44E-03,-2.13E-03,-7.81E-04,-3.44E-02,,,,,,
-3.68E-07,5.94E-03,-1.59E-03,-1.28E-03,-3.58E-02,,,,,,
-3.65E-07,1.09E-02,-1.75E-03,-1.16E-03,-4.08E-02,,,,,,
-3.62E-07,-3.13E-04,-9.69E-04,-2.81E-04,-3.56E-02,,,,,,
-3.59E-07,-3.13E-04,-1.22E-03,-4.06E-04,-2.92E-02,,,,,,
-3.55E-07,3.75E-03,-5.31E-04,4.69E-04,-3.30E-02,,,,,,
-3.52E-07,-5.31E-03,6.56E-04,-5.31E-04,-3.70E-02,,,,,,
-3.49E-07,3.59E-03,-2.25E-03,-1.56E-04,-2.94E-02,,,,,,
-3.46E-07,9.84E-03,-6.88E-04,-5.31E-04,-3.34E-02,,,,,,
-3.43E-07,-3.44E-03,-9.06E-04,-1.03E-03,-2.78E-02,,,,,,
-3.39E-07,1.34E-02,-2.25E-03,-1.78E-03,-2.70E-02,,,,,,
-3.36E-07,6.25E-03,-2.34E-03,4.69E-04,-2.75E-02,,,,,,
-3.33E-07,-3.28E-03,-1.38E-03,-1.03E-03,-2.33E-02,,,,,,
-3.30E-07,3.75E-03,-7.81E-04,-6.88E-04,-3.20E-02,,,,,,
-3.27E-07,8.75E-03,-3.44E-04,-4.06E-04,-2.28E-02,,,,,,
-3.23E-07,5.78E-03,-1.47E-03,-1.53E-03,-3.34E-02,,,,,,
-3.20E-07,6.72E-03,-1.78E-03,-4.06E-04,-4.30E-02,,,,,,
-3.17E-07,-2.19E-03,-2.72E-03,-7.81E-04,-4.06E-02,,,,,,
-3.14E-07,8.91E-03,-1.97E-03,2.19E-04,-3.36E-02,,,,,,
-3.11E-07,3.59E-03,-1.31E-03,-4.38E-04,-3.69E-02,,,,,,
-3.07E-07,7.66E-03,-6.88E-04,-2.41E-03,-4.11E-02,,,,,,
-3.04E-07,5.31E-03,-8.44E-04,-1.56E-04,-4.08E-02,,,,,,
-3.01E-07,8.28E-03,-3.13E-04,-1.16E-03,-3.59E-02,,,,,,
-2.98E-07,1.03E-02,-9.38E-04,-1.91E-03,-3.61E-02,,,,,,
-2.95E-07,1.25E-02,-1.19E-03,-4.06E-04,-3.83E-02,,,,,,
-2.91E-07,1.58E-02,-2.47E-03,-5.31E-04,-2.59E-02,,,,,,
-2.88E-07,1.33E-02,-8.13E-04,3.44E-04,-2.89E-02,,,,,,
-2.85E-07,9.53E-03,-5.31E-04,-1.53E-03,-3.14E-02,,,,,,
-2.82E-07,-1.72E-03,-2.13E-03,-6.56E-04,-3.30E-02,,,,,,
-2.79E-07,1.06E-02,-8.44E-04,9.38E-05,-3.61E-02,,,,,,
-2.75E-07,5.31E-03,-2.19E-04,3.44E-04,-3.27E-02,,,,,,
-2.72E-07,-1.41E-03,-3.09E-03,-2.16E-03,-4.52E-02,,,,,,
-2.69E-07,7.19E-03,-1.84E-03,-1.16E-03,-3.13E-02,,,,,,
-2.66E-07,1.56E-04,-1.03E-03,2.19E-04,-3.39E-02,,,,,,
-2.63E-07,5.78E-03,-5.00E-04,9.38E-05,-2.06E-02,,,,,,
-2.59E-07,6.88E-03,-6.25E-04,-3.13E-05,-2.88E-02,,,,,,
-2.56E-07,-2.03E-03,-4.69E-04,-1.16E-03,-3.27E-02,,,,,,
-2.53E-07,-9.38E-04,-5.63E-04,-1.31E-03,-3.95E-02,,,,,,
-2.50E-07,6.25E-04,-7.81E-04,-1.53E-03,-2.84E-02,,,,,,
-2.47E-07,8.59E-03,-9.69E-04,-1.53E-03,-3.44E-02,,,,,,
-2.43E-07,-1.41E-03,-1.75E-03,-1.41E-03,-2.94E-02,,,,,,
-2.40E-07,-3.44E-03,-6.56E-04,-3.13E-05,-3.22E-02,,,,,,
-2.37E-07,-2.03E-03,-7.50E-04,-1.03E-03,-3.81E-02,,,,,,
-2.34E-07,5.78E-03,-1.31E-03,-1.78E-03,-4.48E-02,,,,,,
-2.31E-07,4.53E-03,-1.63E-03,-7.81E-04,-3.77E-02,,,,,,
-2.27E-07,2.78E-02,9.38E-05,-1.03E-03,-2.89E-02,,,,,,
-2.24E-07,6.33E-02,-2.50E-04,-1.16E-03,-2.97E-02,,,,,,
-2.21E-07,1.26E-01,-2.25E-03,-5.31E-04,-3.27E-02,,,,,,
-2.18E-07,1.94E-01,-1.19E-03,4.69E-04,-3.36E-02,,,,,,
-2.15E-07,2.36E-01,-2.81E-04,-5.31E-04,-2.47E-02,,,,,,
-2.11E-07,2.44E-01,-5.94E-04,-4.06E-04,3.75E-03,,,,,,
-2.08E-07,2.09E-01,-1.47E-03,-1.53E-03,2.50E-02,,,,,,
-2.05E-07,1.50E-01,-8.13E-04,-3.13E-04,3.55E-02,,,,,,
-2.02E-07,1.12E-01,-1.34E-03,-4.06E-04,2.55E-02,,,,,,
-1.99E-07,8.72E-02,-5.63E-04,-7.81E-04,1.34E-02,,,,,,
-1.95E-07,8.66E-02,-1.91E-03,-1.66E-03,-2.58E-02,,,,,,
-1.92E-07,1.01E-01,-1.72E-03,-2.81E-04,-5.38E-02,,,,,,
-1.89E-07,1.34E-01,2.19E-04,-3.13E-05,-4.73E-02,,,,,,
-1.86E-07,1.81E-01,-8.13E-04,-1.16E-03,-3.56E-02,,,,,,
-1.83E-07,1.99E-01,-1.25E-04,-2.28E-03,1.45E-02,,,,,,
-1.79E-07,2.34E-01,-2.25E-03,-1.28E-03,5.97E-02,,,,,,
-1.76E-07,2.21E-01,-5.63E-04,-1.69E-03,7.70E-02,,,,,,
-1.73E-07,2.02E-01,-9.69E-04,-6.56E-04,7.11E-02,,,,,,
-1.70E-07,1.79E-01,-3.13E-04,-1.16E-03,4.34E-02,,,,,,
-1.67E-07,1.52E-01,-6.56E-04,-1.28E-03,8.44E-03,,,,,,
-1.63E-07,1.44E-01,-1.31E-03,-1.66E-03,-1.53E-02,,,,,,
-1.60E-07,1.62E-01,-7.50E-04,-4.06E-04,-2.66E-02,,,,,,
-1.57E-07,1.78E-01,-8.13E-04,-2.53E-03,4.22E-03,,,,,,
-1.54E-07,1.87E-01,-2.53E-03,4.69E-04,4.16E-02,,,,,,
-1.51E-07,1.99E-01,-6.88E-04,1.88E-04,7.92E-02,,,,,,
-1.47E-07,2.19E-01,-1.84E-03,-1.16E-03,1.05E-01,,,,,,
-1.44E-07,2.26E-01,-3.06E-03,-1.53E-03,1.09E-01,,,,,,
-1.41E-07,2.36E-01,-1.84E-03,4.69E-04,7.98E-02,,,,,,
-1.38E-07,2.31E-01,-1.31E-03,3.44E-04,5.91E-02,,,,,,
-1.35E-07,2.14E-01,3.13E-04,-5.31E-04,3.30E-02,,,,,,
-1.31E-07,2.07E-01,-3.44E-04,9.38E-05,3.47E-02,,,,,,
-1.28E-07,1.96E-01,-4.38E-04,8.44E-04,3.05E-02,,,,,,
-1.25E-07,2.02E-01,-4.38E-04,3.44E-04,5.48E-02,,,,,,
-1.22E-07,2.10E-01,-6.25E-04,-4.06E-04,8.02E-02,,,,,,
-1.19E-07,2.21E-01,-1.00E-03,1.41E-03,1.12E-01,,,,,,
-1.15E-07,2.39E-01,-6.25E-05,7.19E-04,1.11E-01,,,,,,
-1.12E-07,2.57E-01,-1.22E-03,9.38E-05,1.02E-01,,,,,,
-1.09E-07,2.66E-01,-5.94E-04,-1.03E-03,9.66E-02,,,,,,
-1.06E-07,2.67E-01,6.25E-05,-2.31E-03,7.97E-02,,,,,,
-1.03E-07,2.64E-01,-1.88E-04,-3.13E-05,7.02E-02,,,,,,
-9.94E-08,2.50E-01,-5.31E-04,2.19E-04,7.59E-02,,,,,,
-9.62E-08,2.31E-01,-1.88E-04,-1.28E-03,8.45E-02,,,,,,
-9.30E-08,2.28E-01,-6.56E-04,-7.81E-04,9.17E-02,,,,,,
-8.98E-08,2.35E-01,-8.44E-04,-6.88E-04,1.09E-01,,,,,,
-8.66E-08,2.40E-01,-1.75E-03,-4.06E-04,1.06E-01,,,,,,
-8.34E-08,2.56E-01,-5.31E-04,-1.41E-03,1.11E-01,,,,,,
-8.02E-08,2.68E-01,-8.13E-04,-1.69E-03,1.15E-01,,,,,,
-7.70E-08,2.73E-01,-2.38E-03,-1.41E-03,1.17E-01,,,,,,
-7.38E-08,2.85E-01,-5.63E-04,-4.06E-04,1.08E-01,,,,,,
-7.06E-08,2.85E-01,-1.25E-03,-5.63E-04,1.03E-01,,,,,,
-6.74E-08,2.88E-01,-1.00E-03,-2.03E-03,9.80E-02,,,,,,
-6.42E-08,2.72E-01,-1.50E-03,-3.13E-05,1.15E-01,,,,,,
-6.10E-08,2.53E-01,-9.38E-04,-1.16E-03,1.20E-01,,,,,,
-5.78E-08,2.57E-01,5.63E-04,-1.66E-03,1.33E-01,,,,,,
-5.46E-08,2.69E-01,-4.38E-04,-1.03E-03,1.25E-01,,,,,,
-5.14E-08,2.68E-01,-1.88E-04,7.19E-04,1.31E-01,,,,,,
-4.82E-08,2.77E-01,-5.63E-04,-7.81E-04,1.26E-01,,,,,,
-4.50E-08,2.91E-01,-2.00E-03,-7.81E-04,1.22E-01,,,,,,
-4.18E-08,2.93E-01,-2.22E-03,9.69E-04,1.26E-01,,,,,,
-3.86E-08,2.98E-01,-1.63E-03,-1.78E-03,1.22E-01,,,,,,
-3.54E-08,3.13E-01,-1.19E-03,5.94E-04,1.33E-01,,,,,,
-3.22E-08,3.01E-01,3.44E-04,-1.78E-03,1.50E-01,,,,,,
-2.90E-08,3.05E-01,-2.25E-03,-4.06E-04,1.59E-01,,,,,,
-2.58E-08,2.96E-01,-1.88E-04,5.94E-04,1.52E-01,,,,,,
-2.26E-08,3.04E-01,-3.13E-04,-1.19E-03,1.59E-01,,,,,,
-1.94E-08,3.10E-01,1.56E-04,-1.16E-03,1.47E-01,,,,,,
-1.62E-08,3.20E-01,-1.06E-03,-5.31E-04,1.50E-01,,,,,,
-1.30E-08,3.27E-01,-6.25E-05,5.94E-04,1.47E-01,,,,,,
-9.77E-09,3.26E-01,-6.25E-05,-3.13E-05,1.52E-01,,,,,,
-6.57E-09,3.31E-01,4.38E-04,-1.16E-03,1.60E-01,,,,,,
-3.37E-09,3.33E-01,-1.06E-03,7.19E-04,1.62E-01,,,,,,
-1.65E-10,3.28E-01,-1.22E-03,7.19E-04,1.68E-01,,,,,,
3.04E-09,3.33E-01,-5.63E-04,-6.56E-04,1.73E-01,,,,,,
6.24E-09,3.27E-01,-3.44E-04,-7.81E-04,1.81E-01,,,,,,
9.44E-09,3.29E-01,-1.09E-03,-6.56E-04,1.66E-01,,,,,,
1.26E-08,3.22E-01,-1.16E-03,5.94E-04,1.72E-01,,,,,,
1.58E-08,3.26E-01,3.44E-04,-7.81E-04,1.78E-01,,,,,,
1.90E-08,3.31E-01,9.38E-05,1.03E-03,1.65E-01,,,,,,
2.22E-08,3.45E-01,-1.22E-03,-7.81E-04,1.66E-01,,,,,,
2.54E-08,3.35E-01,-2.25E-03,4.69E-04,1.77E-01,,,,,,
