Source/in sensor computing/Collective dynamics and long-range order in thermal neuristor networks/data/thermal_coupling/Ben012_1_325K_1E3_12k_4.1V_1E2_12K_4V_sync_000_ALL.csv

Model,MSO54
Channel,CH1,,Channel,CH2,,Channel,CH3,,Channel,CH4
Waveform Type,ANALOG,,Waveform Type,ANALOG,,Waveform Type,ANALOG,,Waveform Type,ANALOG
Horizontal Units,s,,Horizontal Units,s,,Horizontal Units,s,,Horizontal Units,s
Sample Interval,3.20000000e-09,,Sample Interval,3.20000000e-09,,Sample Interval,3.20000000e-09,,Sample Interval,3.20000000e-09
Record Length,31250,,Record Length,31250,,Record Length,31250,,Record Length,31250
Zero Index,343.90156250,,Zero Index,343.90156250,,Zero Index,343.90156250,,Zero Index,343.90156250
Vertical Units,V,,Vertical Units,V,,Vertical Units,V,,Vertical Units,V
,,,,,,,,,,
ANALOG_Thumbnail,,,ANALOG_Thumbnail,,,ANALOG_Thumbnail,,,ANALOG_Thumbnail,

TIME,CH1,CH2,CH3,CH4
-1.10048500e-06,1.32812500e-02,-8.75000000e-04,-1.03125000e-03,-2.18750000e-02
-1.09728500e-06,1.65625000e-02,-1.75000000e-03,-3.12500000e-05,-3.54687500e-02
-1.09408500e-06,1.76562500e-02,-1.31250000e-03,-5.31250000e-04,-3.78125000e-02
-1.09088500e-06,1.20312500e-02,-1.84375000e-03,-2.81250000e-04,-3.90625000e-02
-1.08768500e-06,1.06250000e-02,-1.75000000e-03,-4.06250000e-04,-3.39062500e-02
-1.08448500e-06,8.12500000e-03,-2.37500000e-03,-7.81250000e-04,-3.23437500e-02
-1.08128500e-06,9.21875000e-03,-1.75000000e-03,3.43750000e-04,-3.85937500e-02
-1.07808500e-06,8.43750000e-03,-9.06250000e-04,-2.53125000e-03,-3.46875000e-02
-1.07488500e-06,1.06250000e-02,-4.37500000e-04,-1.65625000e-03,-2.60937500e-02
-1.07168500e-06,4.21875000e-03,-1.96875000e-03,-1.15625000e-03,-3.07812500e-02
-1.06848500e-06,7.34375000e-03,-2.81250000e-04,-5.31250000e-04,-3.56250000e-02
-1.06528500e-06,6.71875000e-03,-1.03125000e-03,-1.78125000e-03,-3.34375000e-02
-1.06208500e-06,1.31250000e-02,-8.43750000e-04,-7.81250000e-04,-3.92187500e-02
-1.05888500e-06,1.00000000e-02,-1.56250000e-04,-6.56250000e-04,-3.23437500e-02
-1.05568500e-06,9.06250000e-03,-1.03125000e-03,-1.56250000e-04,-2.51562500e-02
-1.05248500e-06,2.00000000e-02,9.37500000e-05,-4.06250000e-04,-2.25000000e-02
-1.04928500e-06,2.50000000e-02,-9.68750000e-04,-1.28125000e-03,-2.65625000e-02
-1.04608500e-06,2.31250000e-02,-1.65625000e-03,-1.28125000e-03,-2.60937500e-02
-1.04288500e-06,2.00000000e-02,-1.31250000e-03,-3.12500000e-05,-2.28125000e-02
-1.03968500e-06,1.42187500e-02,-8.12500000e-04,-6.56250000e-04,-2.75000000e-02
-1.03648500e-06,1.54687500e-02,5.93750000e-04,-5.31250000e-04,-2.87500000e-02
-1.03328500e-06,8.59375000e-03,-5.31250000e-04,2.18750000e-04,-2.15625000e-02
-1.03008500e-06,7.50000000e-03,-1.43750000e-03,-7.81250000e-04,-1.89062500e-02
-1.02688500e-06,9.53125000e-03,-9.68750000e-04,9.37500000e-05,-3.28125000e-02
-1.02368500e-06,7.03125000e-03,2.77555756e-17,-5.31250000e-04,-2.73437500e-02
-1.02048500e-06,8.12500000e-03,-9.68750000e-04,-1.78125000e-03,-2.62500000e-02
-1.01728500e-06,1.00000000e-02,-1.18750000e-03,-7.81250000e-04,-4.25000000e-02
-1.01408500e-06,1.04687500e-02,-2.62500000e-03,-1.28125000e-03,-3.00000000e-02
-1.01088500e-06,3.90625000e-03,-6.87500000e-04,-6.56250000e-04,-3.82812500e-02
-1.00768500e-06,1.20312500e-02,-1.00000000e-03,-3.12500000e-05,-3.93750000e-02
-1.00448500e-06,5.00000000e-03,-2.12500000e-03,-1.15625000e-03,-3.90625000e-02
-1.00128500e-06,1.32812500e-02,-8.12500000e-04,-2.43750000e-03,-3.95312500e-02
-9.98085000e-07,-7.81250000e-04,-1.21875000e-03,-1.90625000e-03,-3.73437500e-02
-9.94885000e-07,1.06250000e-02,-2.25000000e-03,-1.81250000e-03,-4.10937500e-02
-9.91685000e-07,7.65625000e-03,-2.65625000e-03,-2.81250000e-04,-4.04687500e-02
-9.88485000e-07,5.15625000e-03,-2.09375000e-03,-2.18750000e-03,-3.45312500e-02
-9.85285000e-07,8.90625000e-03,-4.37500000e-04,-1.28125000e-03,-2.78125000e-02
-9.82085000e-07,7.81250000e-03,-1.71875000e-03,-1.15625000e-03,-3.56250000e-02
-9.78885000e-07,7.34375000e-03,-1.46875000e-03,2.18750000e-04,-4.10937500e-02
-9.75685000e-07,1.28125000e-02,2.18750000e-04,-1.53125000e-03,-4.29687500e-02
-9.72485000e-07,2.50000000e-03,-5.00000000e-04,-6.25000000e-05,-3.65625000e-02
-9.69285000e-07,8.59375000e-03,-1.34375000e-03,-6.56250000e-04,-3.64062500e-02
-9.66085000e-07,1.26562500e-02,-1.75000000e-03,-5.31250000e-04,-4.53125000e-02
-9.62885000e-07,1.40625000e-03,-1.50000000e-03,-1.43750000e-03,-3.51562500e-02
-9.59685000e-07,4.53125000e-03,3.12500000e-05,-1.15625000e-03,-3.85937500e-02
-9.56485000e-07,8.59375000e-03,-5.62500000e-04,-1.46875000e-03,-3.10937500e-02
-9.53285000e-07,5.31250000e-03,6.87500000e-04,-5.62500000e-04,-3.01562500e-02
-9.50085000e-07,1.56250000e-04,-1.00000000e-03,-1.03125000e-03,-2.78125000e-02
-9.46885000e-07,8.90625000e-03,1.87500000e-04,-5.31250000e-04,-3.18750000e-02
-9.43685000e-07,1.39062500e-02,-8.12500000e-04,-1.65625000e-03,-3.09375000e-02
-9.40485000e-07,7.03125000e-03,-2.21875000e-03,-5.31250000e-04,-3.09375000e-02
-9.37285000e-07,5.93750000e-03,-3.12500000e-05,-6.56250000e-04,-3.39062500e-02
-9.34085000e-07,1.00000000e-02,-1.00000000e-03,-1.53125000e-03,-3.79687500e-02
-9.30885000e-07,6.56250000e-03,-4.37500000e-04,-4.06250000e-04,-3.12500000e-02
-9.27685000e-07,-6.87500000e-03,-2.50000000e-03,-1.15625000e-03,-3.73437500e-02
-9.24485000e-07,6.56250000e-03,-4.37500000e-04,-1.65625000e-03,-4.25000000e-02
-9.21285000e-07,-3.59375000e-03,-1.25000000e-04,-6.56250000e-04,-3.59375000e-02
-9.18085000e-07,4.37500000e-03,-8.43750000e-04,-1.40625000e-03,-4.28125000e-02
-9.14885000e-07,2.34375000e-03,-2.12500000e-03,-1.56250000e-04,-4.65625000e-02
-9.11685000e-07,4.68750000e-04,-8.12500000e-04,-3.12500000e-04,-4.90625000e-02
-9.08485000e-07,1.56250000e-04,-1.34375000e-03,-1.56250000e-04,-4.03125000e-02
-9.05285000e-07,1.59375000e-02,-2.12500000e-03,-1.65625000e-03,-4.43750000e-02
-9.02085000e-07,1.40625000e-03,-8.75000000e-04,-1.15625000e-03,-3.43750000e-02
-8.98885000e-07,1.50000000e-02,-1.21875000e-03,-6.56250000e-04,-4.18750000e-02
-8.95685000e-07,8.12500000e-03,4.37500000e-04,-1.15625000e-03,-4.00000000e-02
-8.92485000e-07,1.85937500e-02,-1.34375000e-03,-1.40625000e-03,-3.98437500e-02
-8.89285000e-07,1.23437500e-02,-1.84375000e-03,3.43750000e-04,-3.06250000e-02
-8.86085000e-07,8.90625000e-03,-4.37500000e-04,9.37500000e-05,-3.68750000e-02
-8.82885000e-07,1.09375000e-02,-8.75000000e-04,-4.06250000e-04,-2.18750000e-02
-8.79685000e-07,7.18750000e-03,-9.68750000e-04,-7.81250000e-04,-2.59375000e-02
-8.76485000e-07,5.31250000e-03,-5.31250000e-04,4.68750000e-04,-3.35937500e-02
-8.73285000e-07,1.60937500e-02,3.12500000e-04,9.37500000e-05,-3.06250000e-02
-8.70085000e-07,9.37500000e-04,2.81250000e-04,-7.81250000e-04,-2.81250000e-02
-8.66885000e-07,1.56250000e-03,-1.53125000e-03,-2.31250000e-03,-3.53125000e-02
-8.63685000e-07,7.81250000e-03,-9.37500000e-04,-1.06250000e-03,-3.53125000e-02
-8.60485000e-07,-4.68750000e-04,-4.06250000e-04,-1.15625000e-03,-2.65625000e-02
-8.57285000e-07,4.37500000e-03,-1.53125000e-03,-1.65625000e-03,-3.40625000e-02
-8.54085000e-07,-1.71875000e-03,-1.65625000e-03,-1.15625000e-03,-3.95312500e-02
-8.50885000e-07,-1.56250000e-03,-2.81250000e-04,-3.12500000e-05,-3.56250000e-02
-8.47685000e-07,1.17187500e-02,7.18750000e-04,-7.81250000e-04,-3.21875000e-02
-8.44485000e-07,1.09375000e-02,-4.68750000e-04,4.37500000e-04,-4.15625000e-02
-8.41285000e-07,7.18750000e-03,-5.93750000e-04,-1.78125000e-03,-3.65625000e-02
-8.38085000e-07,7.50000000e-03,-1.09375000e-03,-7.81250000e-04,-4.60937500e-02
-8.34885000e-07,1.06250000e-02,-7.81250000e-04,-2.15625000e-03,-3.00000000e-02
-8.31685000e-07,1.09375000e-02,-9.68750000e-04,-2.81250000e-04,-3.07812500e-02
-8.28485000e-07,1.15625000e-02,-1.87500000e-03,7.18750000e-04,-2.87500000e-02
-8.25285000e-07,5.62500000e-03,-2.28125000e-03,-1.03125000e-03,-2.46875000e-02
-8.22085000e-07,1.20312500e-02,-1.09375000e-03,-1.28125000e-03,-4.04687500e-02
-8.18885000e-07,3.12500000e-03,-5.00000000e-04,2.18750000e-04,-2.62500000e-02
-8.15685000e-07,1.06250000e-02,-3.43750000e-04,-9.06250000e-04,-3.06250000e-02
-8.12485000e-07,8.90625000e-03,-1.87500000e-04,2.18750000e-04,-2.82812500e-02
-8.09285000e-07,6.25000000e-03,-9.37500000e-04,-1.03125000e-03,-2.40625000e-02
-8.06085000e-07,9.21875000e-03,-1.50000000e-03,-3.12500000e-05,-2.82812500e-02
-8.02885000e-07,1.78125000e-02,-5.62500000e-04,-6.56250000e-04,-2.71875000e-02
-7.99685000e-07,7.34375000e-03,1.56250000e-04,-1.78125000e-03,-2.73437500e-02
-7.96485000e-07,7.65625000e-03,-2.12500000e-03,-3.12500000e-05,-2.48437500e-02
-7.93285000e-07,7.18750000e-03,3.12500000e-05,-3.12500000e-05,-2.75000000e-02
-7.90085000e-07,1.12500000e-02,-7.81250000e-04,-1.28125000e-03,-1.87500000e-02
-7.86885000e-07,5.46875000e-03,-8.12500000e-04,9.37500000e-05,-3.37500000e-02
-7.83685000e-07,8.43750000e-03,-5.62500000e-04,-3.12500000e-05,-3.46875000e-02
-7.80485000e-07,1.50000000e-02,-4.68750000e-04,2.18750000e-04,-3.57812500e-02
-7.77285000e-07,1.01562500e-02,-2.03125000e-03,-1.03125000e-03,-3.18750000e-02
-7.74085000e-07,2.18750000e-03,-4.06250000e-04,-2.81250000e-04,-3.12500000e-02
-7.70885000e-07,1.32812500e-02,-9.68750000e-04,-5.31250000e-04,-3.17187500e-02
-7.67685000e-07,2.50000000e-03,4.06250000e-04,-1.15625000e-03,-3.04687500e-02
-7.64485000e-07,1.35937500e-02,-1.56250000e-03,-2.40625000e-03,-3.67187500e-02
-7.61285000e-07,1.46875000e-02,-5.62500000e-04,-5.31250000e-04,-3.54687500e-02
-7.58085000e-07,1.45312500e-02,-2.00000000e-03,-3.12500000e-05,-3.10937500e-02
-7.54885000e-07,9.37500000e-03,-1.50000000e-03,-1.15625000e-03,-2.85937500e-02
-7.51685000e-07,7.96875000e-03,-1.34375000e-03,-7.81250000e-04,-3.23437500e-02
-7.48485000e-07,1.01562500e-02,-1.25000000e-03,-1.40625000e-03,-3.59375000e-02
-7.45285000e-07,1.54687500e-02,-4.37500000e-04,-1.53125000e-03,-3.25000000e-02
-7.42085000e-07,9.84375000e-03,-1.62500000e-03,-1.53125000e-03,-3.70312500e-02
-7.38885000e-07,1.14062500e-02,-1.50000000e-03,-4.06250000e-04,-3.76562500e-02
-7.35685000e-07,1.12500000e-02,-2.34375000e-03,-3.12500000e-05,-3.64062500e-02
-7.32485000e-07,7.65625000e-03,-1.56250000e-03,4.68750000e-04,-3.56250000e-02
-7.29285000e-07,1.40625000e-02,-3.43750000e-04,-1.03125000e-03,-3.40625000e-02
-7.26085000e-07,1.64062500e-02,-1.50000000e-03,-2.81250000e-04,-3.68750000e-02
-7.22885000e-07,1.10937500e-02,-8.12500000e-04,3.43750000e-04,-3.20312500e-02
-7.19685000e-07,1.42187500e-02,-1.50000000e-03,-1.15625000e-03,-3.37500000e-02
-7.16485000e-07,1.79687500e-02,6.87500000e-04,-1.03125000e-03,-2.46875000e-02
-7.13285000e-07,1.81250000e-02,-6.87500000e-04,-1.15625000e-03,-2.73437500e-02
-7.10085000e-07,6.09375000e-03,2.18750000e-04,-4.06250000e-04,-2.90625000e-02
-7.06885000e-07,1.21875000e-02,-6.87500000e-04,-5.31250000e-04,-2.21875000e-02
-7.03685000e-07,1.12500000e-02,3.12500000e-05,-4.06250000e-04,-2.82812500e-02
-7.00485000e-07,9.21875000e-03,-1.43750000e-03,-1.03125000e-03,-3.10937500e-02
-6.97285000e-07,3.12500000e-04,-1.59375000e-03,-2.15625000e-03,-2.96875000e-02
-6.94085000e-07,1.09375000e-03,-6.87500000e-04,9.37500000e-05,-3.26562500e-02
-6.90885000e-07,-1.40625000e-03,-2.09375000e-03,-7.81250000e-04,-3.64062500e-02
-6.87685000e-07,3.59375000e-03,-9.68750000e-04,-2.03125000e-03,-4.12500000e-02
-6.84485000e-07,2.03125000e-03,-4.68750000e-04,1.09375000e-03,-3.15625000e-02
-6.81285000e-07,1.56250000e-03,-1.50000000e-03,-6.56250000e-04,-2.89062500e-02
-6.78085000e-07,9.84375000e-03,-3.75000000e-04,-1.40625000e-03,-2.95312500e-02
-6.74885000e-07,-4.68750000e-04,-9.68750000e-04,-1.40625000e-03,-2.35937500e-02
-6.71685000e-07,-4.37500000e-03,-1.59375000e-03,-5.31250000e-04,-3.71875000e-02
-6.68485000e-07,1.12500000e-02,-1.06250000e-03,-4.06250000e-04,-3.20312500e-02
-6.65285000e-07,1.12500000e-02,5.62500000e-04,-1.03125000e-03,-2.32812500e-02
-6.62085000e-07,1.51562500e-02,-1.06250000e-03,-2.03125000e-03,-2.93750000e-02
-6.58885000e-07,1.26562500e-02,-3.12500000e-04,-3.12500000e-05,-2.73437500e-02
-6.55685000e-07,1.53125000e-02,-1.15625000e-03,-1.03125000e-03,-2.62500000e-02
-6.52485000e-07,1.64062500e-02,-1.09375000e-03,-1.56250000e-04,-2.71875000e-02
-6.49285000e-07,9.37500000e-03,2.81250000e-04,-6.56250000e-04,-1.75000000e-02
-6.46085000e-07,1.54687500e-02,-2.00000000e-03,-7.81250000e-04,-2.64062500e-02
-6.42885000e-07,1.92187500e-02,-8.12500000e-04,-1.56250000e-04,-1.73437500e-02
-6.39685000e-07,8.12500000e-03,-1.06250000e-03,7.18750000e-04,-2.51562500e-02
-6.36485000e-07,1.20312500e-02,-6.56250000e-04,-3.12500000e-05,-1.89062500e-02
-6.33285000e-07,1.35937500e-02,-6.25000000e-05,-1.65625000e-03,-2.96875000e-02
-6.30085000e-07,1.64062500e-02,-2.00000000e-03,-1.15625000e-03,-2.14062500e-02
-6.26885000e-07,1.54687500e-02,-9.37500000e-04,2.18750000e-04,-2.96875000e-02
-6.23685000e-07,1.20312500e-02,-9.68750000e-04,-2.06250000e-03,-2.21875000e-02
-6.20485000e-07,1.29687500e-02,-5.62500000e-04,-5.31250000e-04,-2.89062500e-02
-6.17285000e-07,2.26562500e-02,-1.18750000e-03,-1.03125000e-03,-2.96875000e-02
-6.14085000e-07,2.31250000e-02,-3.43750000e-04,-1.53125000e-03,-1.98437500e-02
-6.10885000e-07,2.21875000e-02,-1.90625000e-03,-1.28125000e-03,-2.04687500e-02
-6.07685000e-07,2.20312500e-02,-1.53125000e-03,-1.15625000e-03,-1.48437500e-02
-6.04485000e-07,2.01562500e-02,-1.28125000e-03,-2.81250000e-04,-1.25000000e-02
-6.01285000e-07,1.39062500e-02,-2.00000000e-03,-4.06250000e-04,-1.98437500e-02
-5.98085000e-07,1.29687500e-02,-1.43750000e-03,-4.06250000e-04,-2.32812500e-02
-5.94885000e-07,1.04687500e-02,-8.43750000e-04,-7.81250000e-04,-2.53125000e-02
-5.91685000e-07,1.54687500e-02,1.87500000e-04,9.37500000e-05,-2.00000000e-02
-5.88485000e-07,1.31250000e-02,1.46875000e-03,2.18750000e-04,-1.29687500e-02
-5.85285000e-07,1.31250000e-02,-9.68750000e-04,-5.31250000e-04,-3.76562500e-02
-5.82085000e-07,2.18750000e-02,-6.56250000e-04,-4.06250000e-04,-2.71875000e-02
-5.78885000e-07,1.28125000e-02,2.18750000e-04,5.93750000e-04,-2.57812500e-02
-5.75685000e-07,1.39062500e-02,-6.25000000e-05,-1.15625000e-03,-2.67187500e-02
-5.72485000e-07,1.00000000e-02,-1.46875000e-03,-6.56250000e-04,-3.15625000e-02
-5.69285000e-07,1.96875000e-02,-1.03125000e-03,4.68750000e-04,-1.28125000e-02
-5.66085000e-07,1.59375000e-02,-9.37500000e-04,-1.15625000e-03,-2.17187500e-02
-5.62885000e-07,1.35937500e-02,3.12500000e-05,-4.06250000e-04,-2.81250000e-02
-5.59685000e-07,1.54687500e-02,-1.90625000e-03,-7.81250000e-04,-2.42187500e-02
-5.56485000e-07,2.37500000e-02,-9.68750000e-04,8.43750000e-04,-3.18750000e-02
-5.53285000e-07,1.59375000e-02,-1.56250000e-03,9.37500000e-05,-1.42187500e-02
-5.50085000e-07,2.00000000e-02,1.71875000e-03,-1.65625000e-03,-2.37500000e-02
-5.46885000e-07,1.51562500e-02,-2.25000000e-03,-1.28125000e-03,-2.60937500e-02
-5.43685000e-07,1.50000000e-02,-9.68750000e-04,-5.31250000e-04,-2.57812500e-02
-5.40485000e-07,1.14062500e-02,-1.96875000e-03,-1.56250000e-04,-2.65625000e-02
-5.37285000e-07,9.37500000e-03,-9.68750000e-04,6.25000000e-05,-3.42187500e-02
-5.34085000e-07,1.29687500e-02,-1.21875000e-03,9.37500000e-05,-2.12500000e-02
-5.30885000e-07,1.26562500e-02,-3.12500000e-04,1.34375000e-03,-3.31250000e-02
-5.27685000e-07,1.14062500e-02,-1.87500000e-03,-2.81250000e-04,-3.21875000e-02
-5.24485000e-07,1.32812500e-02,-1.06250000e-03,-5.31250000e-04,-3.18750000e-02
-5.21285000e-07,9.21875000e-03,-5.93750000e-04,-5.31250000e-04,-3.31250000e-02
-5.18085000e-07,6.87500000e-03,-1.71875000e-03,-1.15625000e-03,-3.64062500e-02
-5.14885000e-07,1.90625000e-02,-4.06250000e-04,-5.31250000e-04,-3.23437500e-02
-5.11685000e-07,7.81250000e-03,-4.37500000e-04,2.18750000e-04,-3.06250000e-02
-5.08485000e-07,1.28125000e-02,-6.25000000e-04,-2.28125000e-03,-3.89062500e-02
-5.05285000e-07,4.53125000e-03,-1.34375000e-03,5.93750000e-04,-4.15625000e-02
-5.02085000e-07,8.59375000e-03,-1.06250000e-03,-1.56250000e-04,-2.07812500e-02
-4.98885000e-07,7.81250000e-03,8.12500000e-04,-7.81250000e-04,-3.17187500e-02
-4.95685000e-07,1.50000000e-02,-6.87500000e-04,-4.06250000e-04,-2.60937500e-02
-4.92485000e-07,3.90625000e-03,-2.03125000e-03,9.37500000e-05,-2.93750000e-02
-4.89285000e-07,7.65625000e-03,-1.50000000e-03,-1.56250000e-04,-3.31250000e-02
-4.86085000e-07,8.43750000e-03,3.12500000e-05,-2.15625000e-03,-3.07812500e-02
-4.82885000e-07,3.43750000e-03,-3.09375000e-03,-1.40625000e-03,-2.37500000e-02
-4.79685000e-07,7.65625000e-03,-2.31250000e-03,2.18750000e-04,-4.20312500e-02
-4.76485000e-07,7.34375000e-03,-1.15625000e-03,-1.03125000e-03,-3.15625000e-02
-4.73285000e-07,-5.00000000e-03,-7.50000000e-04,3.43750000e-04,-2.93750000e-02
-4.70085000e-07,-2.03125000e-03,-2.00000000e-03,-1.28125000e-03,-3.93750000e-02
-4.66885000e-07,-4.53125000e-03,-1.31250000e-03,-3.12500000e-05,-4.37500000e-02
-4.63685000e-07,-1.71875000e-03,-7.81250000e-04,-1.28125000e-03,-3.79687500e-02
-4.60485000e-07,6.40625000e-03,-1.18750000e-03,-2.28125000e-03,-3.53125000e-02
-4.57285000e-07,3.75000000e-03,-2.21875000e-03,-5.31250000e-04,-3.39062500e-02
-4.54085000e-07,-1.40625000e-03,-1.71875000e-03,-2.81250000e-04,-4.32812500e-02
-4.50885000e-07,-2.34375000e-03,-3.00000000e-03,-5.31250000e-04,-2.50000000e-02
-4.47685000e-07,5.00000000e-03,-8.12500000e-04,-7.81250000e-04,-4.10937500e-02
-4.44485000e-07,1.01562500e-02,-2.12500000e-03,-4.06250000e-04,-4.50000000e-02
-4.41285000e-07,4.21875000e-03,-2.12500000e-03,4.68750000e-04,-4.26562500e-02
-4.38085000e-07,3.28125000e-03,-1.46875000e-03,-1.68750000e-03,-4.14062500e-02
-4.34885000e-07,1.71875000e-03,-5.31250000e-04,-1.03125000e-03,-3.81250000e-02
-4.31685000e-07,2.65625000e-03,-1.71875000e-03,-1.03125000e-03,-4.84375000e-02
-4.28485000e-07,5.46875000e-03,-1.34375000e-03,-1.78125000e-03,-3.90625000e-02
-4.25285000e-07,4.84375000e-03,-1.84375000e-03,-1.03125000e-03,-4.21875000e-02
-4.22085000e-07,9.53125000e-03,-1.00000000e-03,-5.31250000e-04,-3.79687500e-02
-4.18885000e-07,1.03125000e-02,-1.28125000e-03,-1.03125000e-03,-3.87500000e-02
-4.15685000e-07,4.06250000e-03,-1.12500000e-03,-1.56250000e-04,-4.17187500e-02
-4.12485000e-07,1.15625000e-02,-5.62500000e-04,-6.56250000e-04,-3.84375000e-02
-4.09285000e-07,3.90625000e-03,2.18750000e-04,-1.40625000e-03,-3.18750000e-02
-4.06085000e-07,8.90625000e-03,-1.34375000e-03,-1.03125000e-03,-3.17187500e-02
-4.02885000e-07,4.53125000e-03,-2.00000000e-03,9.37500000e-05,-2.50000000e-02
-3.99685000e-07,9.84375000e-03,-9.06250000e-04,-1.28125000e-03,-2.70312500e-02
-3.96485000e-07,7.50000000e-03,3.12500000e-04,-4.06250000e-04,-2.96875000e-02
-3.93285000e-07,3.28125000e-03,-1.06250000e-03,-4.06250000e-04,-2.79687500e-02
-3.90085000e-07,-1.56250000e-03,-1.34375000e-03,9.37500000e-05,-3.76562500e-02
-3.86885000e-07,3.12500000e-03,-1.31250000e-03,-5.31250000e-04,-3.35937500e-02
-3.83685000e-07,7.03125000e-03,-8.43750000e-04,5.93750000e-04,-3.98437500e-02
-3.80485000e-07,5.93750000e-03,-1.75000000e-03,3.43750000e-04,-3.42187500e-02
-3.77285000e-07,-1.56250000e-03,-1.56250000e-03,-8.43750000e-04,-3.45312500e-02
-3.74085000e-07,4.53125000e-03,-1.43750000e-03,-1.40625000e-03,-3.34375000e-02
-3.70885000e-07,6.87500000e-03,-1.09375000e-03,-4.06250000e-04,-3.89062500e-02
-3.67685000e-07,-1.56250000e-04,-8.12500000e-04,-1.65625000e-03,-3.62500000e-02
-3.64485000e-07,2.34375000e-03,-1.21875000e-03,-1.18750000e-03,-3.95312500e-02
-3.61285000e-07,4.06250000e-03,-1.18750000e-03,-2.15625000e-03,-4.12500000e-02
-3.58085000e-07,1.34375000e-02,-1.50000000e-03,-1.90625000e-03,-3.68750000e-02
-3.54885000e-07,8.43750000e-03,-1.09375000e-03,-2.03125000e-03,-4.20312500e-02
-3.51685000e-07,7.50000000e-03,-1.37500000e-03,-2.81250000e-04,-4.78125000e-02
-3.48485000e-07,8.59375000e-03,-2.21875000e-03,-1.78125000e-03,-2.50000000e-02
-3.45285000e-07,4.21875000e-03,-2.18750000e-04,-1.15625000e-03,-2.67187500e-02
-3.42085000e-07,-3.43750000e-03,-1.34375000e-03,-1.03125000e-03,-3.03125000e-02
-3.38885000e-07,-4.37500000e-03,-1.00000000e-03,-4.06250000e-04,-2.90625000e-02
-3.35685000e-07,2.81250000e-03,-2.00000000e-03,9.37500000e-05,-3.76562500e-02
-3.32485000e-07,1.09375000e-03,2.18750000e-04,-1.15625000e-03,-3.59375000e-02
-3.29285000e-07,6.56250000e-03,-7.50000000e-04,-1.53125000e-03,-3.56250000e-02
-3.26085000e-07,1.42187500e-02,-2.12500000e-03,-4.06250000e-04,-4.18750000e-02
-3.22885000e-07,2.96875000e-03,-4.37500000e-04,-1.56250000e-04,-3.45312500e-02
